4 Transferring, Processing, and Wrangling Data – A Crash Course in R for Social Scientists
…
Rows: 194 Columns: 331
── Column specification ────────────────────────────────────────────────────────
Delimiter: ","
chr   (3): cname_qog, cname, ccodealp
dbl (328): ccode_qog, ccodecow, ccode, ajr_settmort, atop_ally, atop_number,...

ℹ Use `spec()` to retrieve the full column specification for this data.
ℹ Specify the column types or set `show_col_types = FALSE` to quiet this message.

By printing the name of the object, we can extract a preview of the dataset, along with some useful metadata:

# prints contents of "qog" object to console
qog

# A tibble: 194 × 331
   cname_qog      cname ccode_qog ccodecow ccodealp ccode ajr_settmort atop_ally
   <chr>          <chr>     <dbl>    <dbl> <chr>    <dbl>        <dbl>     <dbl>
 1 Afghanistan    Afgh…         4      700 AFG          4         4.54         1
 2 Albania        Alba…         8      339 ALB          8        NA            1
 3 Algeria        Alge…        12      615 DZA         12         4.36         1
 4 Andorra        Ando…        20      232 AND         20        NA            1
 5 Angola         Ango…        24      540 AGO         24         5.63         1
 6 Antigua and B… Anti…        28       58 ATG         28        NA            1
 7 Azerbaijan     Azer…        31      373 AZE         31        NA            1
 8 Argentina      Arge…        32      160 ARG         32         4.23         1
 9 Australia      Aust…        36      900 AUS         36         2.15         1
10 Austria        Aust…        40      305 AUT         40        NA            1
# ℹ 184 more rows
# ℹ 323 more variables: atop_number <dbl>, bci_bci <dbl>, bicc_gmi <dbl>,
#   bmr_dem <dbl>, bmr_demdur <dbl>, bti_aar <dbl>, bti_acp <dbl>,
#   bti_aod <dbl>, bti_cdi <dbl>, bti_ci <dbl>, bti_cps <dbl>, bti_cr <dbl>,
#   bti_ds <dbl>, bti_eo <dbl>, bti_eos <dbl>, bti_ep <dbl>, bti_ffe <dbl>,
#   bti_foe <dbl>, bti_ij <dbl>, bti_mes <dbl>, bti_muf <dbl>, bti_pdi <dbl>,
#   bti_pp <dbl>, bti_prp <dbl>, bti_ps <dbl>, bti_rol <dbl>, bti_sdi <dbl>, …
…
Rows: 194 Columns: 331
── Column specification ────────────────────────────────────────────────────────
Delimiter: ","
chr   (3): cname_qog, cname, ccodealp
dbl (328): ccode_qog, ccodecow, ccode, ajr_settmort, atop_ally, atop_number,...

ℹ Use `spec()` to retrieve the full column specification for this data.
ℹ Specify the column types or set `show_col_types = FALSE` to quiet this message.

We can print qog_direct to the console to confirm that the data was successfully read in, and that its contents are identical to qog:

# prints contents of qog_direct
qog_direct

# A tibble: 194 × 331
   cname_qog      cname ccode_qog ccodecow ccodealp ccode ajr_settmort atop_ally
   <chr>          <chr>     <dbl>    <dbl> <chr>    <dbl>        <dbl>     <dbl>
 1 Afghanistan    Afgh…         4      700 AFG          4         4.54         1
 2 Albania        Alba…         8      339 ALB          8        NA            1
 3 Algeria        Alge…        12      615 DZA         12         4.36         1
 4 Andorra        Ando…        20      232 AND         20        NA            1
 5 Angola         Ango…        24      540 AGO         24         5.63         1
 6 Antigua and B… Anti…        28       58 ATG         28        NA            1
 7 Azerbaijan     Azer…        31      373 AZE         31        NA            1
 8 Argentina      Arge…        32      160 ARG         32         4.23         1
 9 Australia      Aust…        36      900 AUS         36         2.15         1
10 Austria        Aust…        40      305 AUT         40        NA            1
# ℹ 184 more rows
# ℹ 323 more variables: atop_number <dbl>, bci_bci <dbl>, bicc_gmi <dbl>,
#   bmr_dem <dbl>, bmr_demdur <dbl>, bti_aar <dbl>, bti_acp <dbl>,
#   bti_aod <dbl>, bti_cdi <dbl>, bti_ci <dbl>, bti_cps <dbl>, bti_cr <dbl>,
#   bti_ds <dbl>, bti_eo <dbl>, bti_eos <dbl>, bti_ep <dbl>, bti_ffe <dbl>,
#   bti_foe <dbl>, bti_ij <dbl>, bti_mes <dbl>, bti_muf <dbl>, bti_pdi <dbl>,
#   bti_pp <dbl>, bti_prp <dbl>, bti_ps <dbl>, bti_rol <dbl>, bti_sdi <dbl>, …
…
Rows: 194 Columns: 331
── Column specification ────────────────────────────────────────────────────────
Delimiter: ","
chr   (3): cname_qog, cname, ccodealp
dbl (328): ccode_qog, ccodecow, ccode, ajr_settmort, atop_ally, atop_number,...

ℹ Use `spec()` to retrieve the full column specification for this data.
ℹ Specify the column types or set `show_col_types = FALSE` to quiet this message.

We can print out the contents of qog_cloud to the console to ensure that the data has been read in correctly:

# prints contents of "qog_cloud" to the console
qog_cloud

# A tibble: 194 × 331
   cname_qog      cname ccode_qog ccodecow ccodealp ccode ajr_settmort atop_ally
   <chr>          <chr>     <dbl>    <dbl> <chr>    <dbl>        <dbl>     <dbl>
 1 Afghanistan    Afgh…         4      700 AFG          4         4.54         1
 2 Albania        Alba…         8      339 ALB          8        NA            1
 3 Algeria        Alge…        12      615 DZA         12         4.36         1
 4 Andorra        Ando…        20      232 AND         20        NA            1
 5 Angola         Ango…        24      540 AGO         24         5.63         1
 6 Antigua and B… Anti…        28       58 ATG         28        NA            1
 7 Azerbaijan     Azer…        31      373 AZE         31        NA            1
 8 Argentina      Arge…        32      160 ARG         32         4.23         1
 9 Australia      Aust…        36      900 AUS         36         2.15         1
10 Austria        Aust…        40      305 AUT         40        NA            1
# ℹ 184 more rows
# ℹ 323 more variables: atop_number <dbl>, bci_bci <dbl>, bicc_gmi <dbl>,
#   bmr_dem <dbl>, bmr_demdur <dbl>, bti_aar <dbl>, bti_acp <dbl>,
#   bti_aod <dbl>, bti_cdi <dbl>, bti_ci <dbl>, bti_cps <dbl>, bti_cr <dbl>,
#   bti_ds <dbl>, bti_eo <dbl>, bti_eos <dbl>, bti_ep <dbl>, bti_ffe <dbl>,
#   bti_foe <dbl>, bti_ij <dbl>, bti_mes <dbl>, bti_muf <dbl>, bti_pdi <dbl>,
#   bti_pp <dbl>, bti_prp <dbl>, bti_ps <dbl>, bti_rol <dbl>, bti_sdi <dbl>, …
4.3.1.4 Reading in data saved in different file formats

The QoG dataset that we read in from different sources in the subsections above was saved as a CSV file; though this is a widely-used and flexible file format, it’s likely that you’ll also have to read in datasets in file formats other than CSV (for example, .xlsx, or Stata, SPSS, or SAS files). There are useful tidyverse packages that can help with importing datasets stored in a variety of such file formats. For example, the readxl package offers handy functions for reading in Excel files (i.e. .xls and .xlsx files), while the haven package provides functions to read in Stata, SPSS, or SAS files.

To get a sense of how to read in a non-CSV file, let’s quickly explore how to use the haven package’s read_dta() function to read a Stata file into R as a data frame. As part of the data package you downloaded for this workshop, there is a Stata version of the QoG dataset (“qog_bas_cs_jan25.dta”). Below, we’ll read this version of the dataset into R from our local directory by passing the file path and file name as an argument to the read_dta() function and assigning it to a new object named qog_stata:

# reads in stata version of QoG crossnational dataset from local drive using haven's "read_dta" function and assigns the data to a new object named "qog_stata"
qog_stata <- read_dta("data/quality_of_government/qog_bas_cs_jan25.dta")

Now, let’s print the contents of qog_stata to the console, and confirm that the Stata dataset was successfully read in as an R data frame/tibble:

# prints contents of "qog_stata"
qog_stata

# A tibble: 194 × 331
   cname_qog      cname ccode_qog ccodecow ccodealp ccode ajr_settmort atop_ally
   <chr>          <chr>     <dbl>    <dbl> <chr>    <dbl>        <dbl>     <dbl>
 1 Afghanistan    Afgh…         4      700 AFG          4         4.54         1
 2 Albania        Alba…         8      339 ALB          8        NA            1
 3 Algeria        Alge…        12      615 DZA         12         4.36         1
 4 Andorra        Ando…        20      232 AND         20        NA            1
 5 Angola         Ango…        24      540 AGO         24         5.63         1
 6 Antigua and B… Anti…        28       58 ATG         28        NA            1
 7 Azerbaijan     Azer…        31      373 AZE         31        NA            1
 8 Argentina      Arge…        32      160 ARG         32         4.23         1
 9 Australia      Aust…        36      900 AUS         36         2.15         1
10 Austria        Aust…        40      305 AUT         40        NA            1
# ℹ 184 more rows
# ℹ 323 more variables: atop_number <dbl>, bci_bci <dbl>, bicc_gmi <dbl>,
#   bmr_dem <dbl>, bmr_demdur <dbl>, bti_aar <dbl>, bti_acp <dbl>,
#   bti_aod <dbl>, bti_cdi <dbl>, bti_ci <dbl>, bti_cps <dbl>, bti_cr <dbl>,
#   bti_ds <dbl>, bti_eo <dbl>, bti_eos <dbl>, bti_ep <dbl>, bti_ffe <dbl>,
#   bti_foe <dbl>, bti_ij <dbl>, bti_mes <dbl>, bti_muf <dbl>, bti_pdi <dbl>,
#   bti_pp <dbl>, bti_prp <dbl>, bti_ps <dbl>, bti_rol <dbl>, bti_sdi <dbl>, …
…
ℹ Use `spec()` to retrieve the full column specification for this data.
ℹ Specify the column types or set `show_col_types = FALSE` to quiet this message.

Now, let’s go ahead print the contents of world_bank_list:

# prints contents of "world_bank_list"
world_bank_list

[[1]]
# A tibble: 271 × 5
   `Country Name`     `Country Code` `Series Name` `Series Code` `2019 [YR2019]`
   <chr>              <chr>          <chr>         <chr>         <chr>          
 1 Afghanistan        AFG            Central gove… GC.DOD.TOTL.… ..             
 2 Albania            ALB            Central gove… GC.DOD.TOTL.… 75.69848824949…
 3 Algeria            DZA            Central gove… GC.DOD.TOTL.… ..             
 4 American Samoa     ASM            Central gove… GC.DOD.TOTL.… ..             
 5 Andorra            AND            Central gove… GC.DOD.TOTL.… ..             
 6 Angola             AGO            Central gove… GC.DOD.TOTL.… ..             
 7 Antigua and Barbu… ATG            Central gove… GC.DOD.TOTL.… ..             
 8 Argentina          ARG            Central gove… GC.DOD.TOTL.… ..             
 9 Armenia            ARM            Central gove… GC.DOD.TOTL.… 50.02842068637…
10 Aruba              ABW            Central gove… GC.DOD.TOTL.… ..             
# ℹ 261 more rows

[[2]]
# A tibble: 271 × 5
   `Country Name`     `Country Code` `Series Name` `Series Code` `2019 [YR2019]`
   <chr>              <chr>          <chr>         <chr>         <chr>          
 1 Afghanistan        AFG            Foreign dire… BX.KLT.DINV.… 0.124495985791…
 2 Albania            ALB            Foreign dire… BX.KLT.DINV.… 7.797920483865…
 3 Algeria            DZA            Foreign dire… BX.KLT.DINV.… 0.804144058246…
 4 American Samoa     ASM            Foreign dire… BX.KLT.DINV.… ..             
 5 Andorra            AND            Foreign dire… BX.KLT.DINV.… ..             
 6 Angola             AGO            Foreign dire… BX.KLT.DINV.… -5.78081314444…
 7 Antigua and Barbu… ATG            Foreign dire… BX.KLT.DINV.… 7.433324076307…
 8 Argentina          ARG            Foreign dire… BX.KLT.DINV.… 1.485006875706…
 9 Armenia            ARM            Foreign dire… BX.KLT.DINV.… 0.736361516844…
10 Aruba              ABW            Foreign dire… BX.KLT.DINV.… -2.21528256776…
# ℹ 261 more rows

[[3]]
# A tibble: 271 × 5
   `Country Name`     `Country Code` `Series Name` `Series Code` `2019 [YR2019]`
   <chr>              <chr>          <chr>         <chr>         <chr>          
 1 Afghanistan        AFG            Trade (% of … NE.TRD.GNFS.… ..             
 2 Albania            ALB            Trade (% of … NE.TRD.GNFS.… 76.27919464957…
 3 Algeria            DZA            Trade (% of … NE.TRD.GNFS.… 51.80973844157…
 4 American Samoa     ASM            Trade (% of … NE.TRD.GNFS.… 156.5687789799…
 5 Andorra            AND            Trade (% of … NE.TRD.GNFS.… ..             
 6 Angola             AGO            Trade (% of … NE.TRD.GNFS.… 57.82953811830…
 7 Antigua and Barbu… ATG            Trade (% of … NE.TRD.GNFS.… 137.6251757558…
 8 Argentina          ARG            Trade (% of … NE.TRD.GNFS.… 32.63061504584…
 9 Armenia            ARM            Trade (% of … NE.TRD.GNFS.… 96.11415412887…
10 Aruba              ABW            Trade (% of … NE.TRD.GNFS.… 145.3435727352…
# ℹ 261 more rows

[[4]]
# A tibble: 271 × 5
   `Country Name`     `Country Code` `Series Name` `Series Code` `2019 [YR2019]`
   <chr>              <chr>          <chr>         <chr>         <chr>          
 1 Afghanistan        AFG            Urban popula… SP.URB.TOTL.… 25.754         
 2 Albania            ALB            Urban popula… SP.URB.TOTL.… 61.229         
 3 Algeria            DZA            Urban popula… SP.URB.TOTL.… 73.189         
 4 American Samoa     ASM            Urban popula… SP.URB.TOTL.… 87.147         
 5 Andorra            AND            Urban popula… SP.URB.TOTL.… 87.984         
 6 Angola             AGO            Urban popula… SP.URB.TOTL.… 66.177         
 7 Antigua and Barbu… ATG            Urban popula… SP.URB.TOTL.… 24.506         
 8 Argentina          ARG            Urban popula… SP.URB.TOTL.… 91.991         
 9 Armenia            ARM            Urban popula… SP.URB.TOTL.… 63.219         
10 Aruba              ABW            Urban popula… SP.URB.TOTL.… 43.546         
# ℹ 261 more rows
…
# removes CSV extension from "worldbank_filenames"
worldbank_filenames_base <- str_remove(worldbank_filenames, ".csv")

Now, let’s use the names() argument to assign the labels in worldbank_filenames_base to the elements in world_bank_list:

# assigns names to datasets in "world_bank_list"
names(world_bank_list) <- worldbank_filenames_base

Now that the file names are assigned, we can extract list elements by their labels. Below, for example, we extract the FDI dataset from world_bank_list using its label:

# extracts fdi dataset from "world_bank_list" by assigned label
world_bank_list[["wdi_fdi2019"]]

# A tibble: 271 × 5
   `Country Name`     `Country Code` `Series Name` `Series Code` `2019 [YR2019]`
   <chr>              <chr>          <chr>         <chr>         <chr>          
 1 Afghanistan        AFG            Foreign dire… BX.KLT.DINV.… 0.124495985791…
 2 Albania            ALB            Foreign dire… BX.KLT.DINV.… 7.797920483865…
 3 Algeria            DZA            Foreign dire… BX.KLT.DINV.… 0.804144058246…
 4 American Samoa     ASM            Foreign dire… BX.KLT.DINV.… ..             
 5 Andorra            AND            Foreign dire… BX.KLT.DINV.… ..             
 6 Angola             AGO            Foreign dire… BX.KLT.DINV.… -5.78081314444…
 7 Antigua and Barbu… ATG            Foreign dire… BX.KLT.DINV.… 7.433324076307…
 8 Argentina          ARG            Foreign dire… BX.KLT.DINV.… 1.485006875706…
 9 Armenia            ARM            Foreign dire… BX.KLT.DINV.… 0.736361516844…
10 Aruba              ABW            Foreign dire… BX.KLT.DINV.… -2.21528256776…
# ℹ 261 more rows
…
# subsets "qog_copy_select_initial" using the "filter()" function to include only observations with undp_hdi>0.8, and deposits the modified dataset into a new object named "qog_final_processed"
qog_final_processed <- filter(qog_copy_select_initial, undp_hdi>0.8)

Now, let’s view qog_final_processed in the data viewer and confirm that it only includes the selected variables and is appropriately subsetted according to the specified condition:

View(qog_final_processed)

Notice that using conventional notation (i.e. notation without a pipe), we arrived at our final processed dataset in two steps; first, we had to select columns using the select() function, and then we had to take the resulting object and call the filter() function to subset the data based on the “undp_hdi” variable. This process can by a little clunky, and the pipe operator helps to streamline it, making for more efficient and readable code. In short, when we use pipe (rather than conventional) notation, we can get from qog_copy to the final processed dataset with just the following:

qog_copy %>% 
  select(cname_qog, cname, ccodealp, undp_hdi, wdi_expedu) %>% 
  filter(undp_hdi>0.8)

# A tibble: 65 × 5
   cname_qog           cname               ccodealp undp_hdi wdi_expedu
   <chr>               <chr>               <chr>       <dbl>      <dbl>
 1 Andorra             Andorra             AND         0.855       2.58
 2 Antigua and Barbuda Antigua and Barbuda ATG         0.819       2.57
 3 Argentina           Argentina           ARG         0.844       4.64
 4 Australia           Australia           AUS         0.949       5.33
 5 Austria             Austria             AUT         0.92        5.49
 6 Bahrain             Bahrain             BHR         0.884       2.22
 7 Barbados            Barbados            BRB         0.803       4.86
 8 Belgium             Belgium             BEL         0.938       6.36
 9 Brunei              Brunei Darussalam   BRN         0.824      NA   
10 Belarus             Belarus             BLR         0.801       4.61
# ℹ 55 more rows
…
